…
``` r
#replace the erroneous year 2 with correct 1964

uoe_art <- uoe_art %>% 
  mutate(
        year = replace(year, 
                       year == 2, 1964))

#Which artist has the most art pieces in this collection

uoe_art %>% 
      count(artist, sort = TRUE)
```

    ## # A tibble: 1,101 × 2
    ##    artist               n
    ##    <chr>            <int>
    ##  1 Unknown            349
    ##  2 Emma Gillies       144
    ##  3 <NA>               112
    ##  4 John Bellany        21
    ##  5 Ann F Ward          19
    ##  6 Boris Bućan         16
    ##  7 Gordon Bryce        16
    ##  8 Marjorie Wallace    16
    ##  9 William Gillon      16
    ## 10 Zygmunt Bukowski    16
    ## # … with 1,091 more rows
…
